#FIG 3.2  Produced by xfig version 3.2.5c
Portrait
Center
Metric
A4      
100.00
Single
-2
1200 2
0 32 #c6b797
0 33 #eff8ff
0 34 #dccba6
0 35 #404040
0 36 #808080
0 37 #c0c0c0
0 38 #e0e0e0
0 39 #8e8f8e
0 40 #aaaaaa
0 41 #555555
0 42 #bebebe
0 43 #515151
0 44 #e7e3e7
0 45 #000049
0 46 #797979
0 47 #303430
0 48 #414141
0 49 #c7b696
0 50 #8e8e8e
0 51 #414541
0 52 #8e8e8e
0 53 #cccccc
0 54 #868286
0 55 #c7c3c7
0 56 #444444
0 57 #868686
0 58 #c7c7c7
0 59 #e7e7e7
0 60 #f7f7f7
0 61 #9e9e9e
0 62 #717571
0 63 #effbff
0 64 #666666
0 65 #000000
0 66 #ffffff
0 67 #dd9d93
0 68 #f1ece0
0 69 #c3c3c3
0 70 #e2c8a8
0 71 #e1e1e1
0 72 #d2d2d2
0 73 #ededed
0 74 #da7a1a
0 75 #f1e41a
0 76 #887dc2
0 77 #d6d6d6
0 78 #8c8ca5
0 79 #4a4a4a
0 80 #5a5a5a
0 81 #636363
0 82 #b79b73
0 83 #4193ff
0 84 #bf703b
0 85 #db7700
0 86 #dab800
0 87 #006400
0 88 #5a6b3b
0 89 #d3d3d3
0 90 #8e8ea4
0 91 #f3b95d
0 92 #89996b
0 93 #646464
0 94 #b7e6ff
0 95 #86c0ec
0 96 #bdbdbd
0 97 #d39552
0 98 #98d2fe
0 99 #8c6b6b
0 100 #eeeeee
0 101 #848484
0 102 #7b7b7b
0 103 #005a00
0 104 #e77373
0 105 #ffcb31
0 106 #29794a
0 107 #de2821
0 108 #2159c6
0 109 #f8f8f8
0 110 #e6e6e6
0 111 #a5b5c6
0 112 #6b6b94
0 113 #846b6b
0 114 #529c4a
0 115 #d6e7e7
0 116 #526363
0 117 #186b4a
0 118 #21845a
0 119 #f3eed3
0 120 #f5ae5d
0 121 #95ce99
0 122 #b5157d
0 123 #5a6b39
0 124 #8c9c6b
0 125 #8c9c7b
0 126 #184a18
0 127 #adadad
0 128 #f7bd5a
0 129 #636b9c
0 130 #de0000
0 131 #adadad
0 132 #f7bd5a
0 133 #adadad
0 134 #f7bd5a
0 135 #636b9c
0 136 #526b29
0 137 #949494
0 138 #006300
0 139 #9ca5b5
0 140 #ff9400
0 141 #ff9400
0 142 #00634a
0 143 #7b844a
0 144 #63737b
0 145 #e7bd7b
0 146 #184a18
0 147 #f7bd5a
0 148 #dedede
0 149 #f76b00
0 150 #565151
0 151 #d7d7d7
0 152 #85807d
0 153 #3a3a3a
0 154 #4573aa
0 155 #aeaeae
0 156 #7b79a5
0 157 #73758c
0 158 #635dce
# Desktop computer
6 270 264 630 720
6 300 271 604 551
2 2 0 1 0 38 20 0 20 0.000 2 0 7 0 0 5
	 300 271 604 271 604 525 300 525 300 271
2 2 0 0 0 35 19 0 22 0.000 1 0 -1 0 0 5
	 541 297 515 297 515 500 541 500 541 297
2 2 0 0 0 35 19 0 24 0.000 1 0 -1 0 0 5
	 515 297 490 297 490 500 515 500 515 297
2 2 0 0 0 35 19 0 26 0.000 1 0 -1 0 0 5
	 490 297 452 297 452 500 490 500 490 297
2 2 0 0 0 35 19 0 28 0.000 1 0 -1 0 0 5
	 452 297 414 297 414 500 452 500 452 297
2 2 0 0 0 35 19 0 30 0.000 1 0 -1 0 0 5
	 414 297 388 297 388 500 414 500 414 297
2 2 0 0 0 35 19 0 33 0.000 1 0 -1 0 0 5
	 388 297 363 297 363 500 388 500 388 297
2 2 0 0 0 35 19 0 33 0.000 1 0 -1 0 0 5
	 363 297 338 297 338 500 363 500 363 297
2 2 0 1 0 36 20 0 20 0.000 2 0 7 0 0 5
	 388 525 515 525 515 538 388 538 388 525
2 2 0 1 0 36 20 0 20 0.000 2 0 -1 0 0 5
	 376 538 528 538 528 551 376 551 376 538
2 2 0 0 0 35 19 0 20 0.000 1 0 7 0 0 5
	 566 297 541 297 541 500 566 500 566 297
3 5 0 0 0 37 18 0 20 0.000 0 0 0 4
	 325 297 325 500 338 487 338 310
	 0.000 0.000 0.000 0.000
3 5 0 0 0 7 18 0 20 0.000 0 0 0 5
	 325 500 338 487 455 492 566 487 579 500
	 0.000 0.000 -1.000 0.000 0.000
3 5 0 0 0 37 18 0 20 0.000 0 0 0 4
	 579 297 579 500 566 487 566 310
	 0.000 0.000 0.000 0.000
3 5 0 0 0 36 18 0 20 0.000 0 0 0 5
	 325 297 338 310 455 304 566 310 579 297
	 0.000 0.000 -1.000 0.000 0.000
-6
6 274 640 630 716
2 3 0 1 0 38 20 0 20 0.000 2 0 7 0 0 7
	 312 640 592 640 630 703 630 716 274 716 274 703
	 312 640
2 1 0 1 0 37 19 0 20 0.000 2 0 -1 0 0 4
	 274 703 274 716 630 716 630 703
2 3 0 0 0 7 19 0 20 0.000 2 0 -1 0 0 5
	 325 652 300 690 528 690 515 652 325 652
2 2 0 0 0 36 18 0 20 0.000 2 0 -1 0 0 5
	 300 690 528 690 528 695 300 695 300 690
2 3 0 0 0 37 18 0 20 0.000 2 0 -1 0 0 9
	 320 652 300 690 338 690 343 678 334 678 339 665
	 331 665 338 652 320 652
2 3 0 0 0 37 18 0 20 0.000 2 0 -1 0 0 10
	 528 690 490 690 490 678 498 678 497 665 503 665
	 504 665 502 652 518 652 528 690
2 3 0 0 0 7 19 0 20 0.000 2 0 -1 0 0 5
	 579 652 528 652 541 690 604 690 579 652
2 3 0 0 0 37 18 0 20 0.000 2 0 -1 0 0 7
	 604 690 593 690 579 660 530 660 528 652 584 652
	 604 690
2 2 0 0 0 36 18 0 20 0.000 2 0 -1 0 0 5
	 541 690 604 690 604 695 541 695 541 690
2 3 0 0 0 36 18 0 20 0.000 2 0 -1 0 0 5
	 541 691 541 695 528 656 528 653 541 691
-6
6 306 551 598 627
6 494 564 583 589
6 494 564 583 589
2 1 0 1 36 -1 19 0 -1 0.000 2 0 -1 0 0 5
	 494 577 494 570 521 570 521 564 555 564
2 1 0 1 36 -1 19 0 -1 0.000 2 0 -1 0 0 3
	 521 589 521 577 555 577
2 1 0 1 36 -1 19 0 -1 0.000 2 0 -1 0 0 2
	 555 570 583 570
2 1 0 1 7 -1 19 0 -1 0.000 2 0 -1 0 0 2
	 555 564 555 570
2 1 0 1 7 -1 19 0 -1 0.000 2 0 -1 0 0 2
	 494 577 521 577
2 1 0 1 7 -1 19 0 -1 0.000 2 0 -1 0 0 5
	 521 589 555 589 555 577 583 577 583 570
2 1 0 1 36 -1 19 0 -1 0.000 2 0 -1 0 0 3
	 562 589 576 589 576 583
2 1 0 1 7 -1 19 0 -1 0.000 2 0 -1 0 0 3
	 562 589 562 583 576 583
-6
-6
2 2 0 1 0 35 20 0 20 0.000 2 0 -1 0 0 5
	 306 627 344 627 344 620 306 620 306 627
2 2 0 1 0 35 20 0 20 0.000 2 0 -1 0 0 5
	 560 627 598 627 598 620 560 620 560 627
2 2 0 1 0 38 20 0 20 0.000 2 0 -1 0 0 5
	 306 551 598 551 598 621 306 621 306 551
-6
-6
6 1125 1080 1620 1575
1 3 0 1 7 1 50 -1 20 0.000 1 0.0000 1350 1305 225 225 1350 1305 1575 1305
1 3 0 0 1 0 51 -1 20 0.000 1 0.0000 1395 1350 225 225 1395 1350 1620 1350
2 1 0 2 6 7 49 -1 -1 0.000 0 0 7 1 0 3
	1 1 1.00 45.00 60.00
	 1395 1125 1395 1260 1530 1260
2 1 0 2 6 7 49 -1 -1 0.000 0 0 7 1 0 3
	1 1 1.00 45.00 60.00
	 1530 1350 1395 1350 1395 1485
2 1 0 2 6 7 49 -1 -1 0.000 0 0 7 1 0 3
	1 1 1.00 45.00 60.00
	 1305 1485 1305 1350 1170 1350
2 1 0 2 6 7 49 -1 -1 0.000 0 0 7 1 0 3
	1 1 1.00 45.00 60.00
	 1170 1260 1305 1260 1305 1125
-6
6 2025 1080 2520 1575
1 3 0 1 7 1 50 -1 20 0.000 1 0.0000 2250 1305 225 225 2250 1305 2475 1305
1 3 0 0 1 0 51 -1 20 0.000 1 0.0000 2295 1350 225 225 2295 1350 2520 1350
2 1 0 2 6 7 49 -1 -1 0.000 0 0 7 1 0 3
	1 1 1.00 45.00 60.00
	 2295 1125 2295 1260 2430 1260
2 1 0 2 6 7 49 -1 -1 0.000 0 0 7 1 0 3
	1 1 1.00 45.00 60.00
	 2430 1350 2295 1350 2295 1485
2 1 0 2 6 7 49 -1 -1 0.000 0 0 7 1 0 3
	1 1 1.00 45.00 60.00
	 2205 1485 2205 1350 2070 1350
2 1 0 2 6 7 49 -1 -1 0.000 0 0 7 1 0 3
	1 1 1.00 45.00 60.00
	 2070 1260 2205 1260 2205 1125
-6
# Server box
6 2880 184 3240 810
6 2920 410 3200 716
6 2920 410 3200 437
2 2 0 0 0 38 19 0 20 0.000 0 1 -1 0 0 5
	 2920 424 3200 424 3200 437 2920 437 2920 424
2 2 0 0 0 35 19 0 20 0.000 0 1 -1 0 0 5
	 2920 410 3200 410 3200 424 2920 424 2920 410
-6
6 2920 450 3200 477
2 2 0 0 0 38 19 0 20 0.000 0 1 -1 0 0 5
	 2920 464 3200 464 3200 477 2920 477 2920 464
2 2 0 0 0 35 19 0 20 0.000 0 1 -1 0 0 5
	 2920 450 3200 450 3200 464 2920 464 2920 450
-6
6 2920 490 3200 517
2 2 0 0 0 38 19 0 20 0.000 0 1 -1 0 0 5
	 2920 504 3200 504 3200 517 2920 517 2920 504
2 2 0 0 0 35 19 0 20 0.000 0 1 -1 0 0 5
	 2920 490 3200 490 3200 504 2920 504 2920 490
-6
6 2920 530 3200 557
2 2 0 0 0 38 19 0 20 0.000 0 1 -1 0 0 5
	 2920 544 3200 544 3200 557 2920 557 2920 544
2 2 0 0 0 35 19 0 20 0.000 0 1 -1 0 0 5
	 2920 530 3200 530 3200 544 2920 544 2920 530
-6
6 2920 570 3200 597
2 2 0 0 0 38 19 0 20 0.000 0 1 -1 0 0 5
	 2920 584 3200 584 3200 597 2920 597 2920 584
2 2 0 0 0 35 19 0 20 0.000 0 1 -1 0 0 5
	 2920 570 3200 570 3200 584 2920 584 2920 570
-6
6 2920 610 3200 637
2 2 0 0 0 38 19 0 20 0.000 0 1 -1 0 0 5
	 2920 624 3200 624 3200 637 2920 637 2920 624
2 2 0 0 0 35 19 0 20 0.000 0 1 -1 0 0 5
	 2920 610 3200 610 3200 624 2920 624 2920 610
-6
6 2920 650 3200 676
2 2 0 0 0 38 19 0 20 0.000 0 1 -1 0 0 5
	 2920 664 3200 664 3200 676 2920 676 2920 664
2 2 0 0 0 35 19 0 20 0.000 0 1 -1 0 0 5
	 2920 650 3200 650 3200 664 2920 664 2920 650
-6
6 2920 690 3200 716
2 2 0 0 0 38 19 0 20 0.000 0 1 -1 0 0 5
	 2920 704 3200 704 3200 716 2920 716 2920 704
2 2 0 0 0 35 19 0 20 0.000 0 1 -1 0 0 5
	 2920 690 3200 690 3200 704 2920 704 2920 690
-6
-6
6 2920 238 3200 344
6 2920 318 3200 344
2 2 0 0 0 38 19 0 20 0.000 0 1 -1 0 0 5
	 2920 330 3200 330 3200 344 2920 344 2920 330
2 2 0 0 0 35 19 0 20 0.000 0 1 -1 0 0 5
	 2920 318 3200 318 3200 330 2920 330 2920 318
-6
6 2920 278 3200 304
2 2 0 0 0 38 19 0 20 0.000 0 1 -1 0 0 5
	 2920 290 3200 290 3200 304 2920 304 2920 290
2 2 0 0 0 35 19 0 20 0.000 0 1 -1 0 0 5
	 2920 278 3200 278 3200 290 2920 290 2920 278
-6
6 2920 238 3200 264
2 2 0 0 0 38 19 0 20 0.000 0 1 -1 0 0 5
	 2920 250 3200 250 3200 264 2920 264 2920 250
2 2 0 0 0 35 19 0 20 0.000 0 1 -1 0 0 5
	 2920 238 3200 238 3200 250 2920 250 2920 238
-6
-6
2 2 0 1 0 35 19 0 20 0.000 0 1 -1 0 0 5
	 2880 756 3240 756 3240 810 2880 810 2880 756
2 1 0 1 0 37 19 0 20 0.000 0 1 -1 0 0 2
	 2880 370 3240 370
2 2 0 1 0 37 20 0 20 0.000 0 1 -1 0 0 5
	 2880 184 3240 184 3240 810 2880 810 2880 184
-6
2 1 0 1 0 7 50 -1 -1 0.000 0 0 -1 0 0 2
	 1080 1710 2520 1710
2 1 0 1 0 7 60 -1 -1 0.000 0 0 -1 0 0 2
	 450 900 450 675
2 1 0 1 0 7 60 -1 -1 0.000 0 0 -1 0 0 2
	 270 900 1620 900
2 1 0 1 0 7 60 -1 -1 0.000 0 0 -1 0 0 2
	 1350 900 1350 1710
2 1 0 1 0 7 60 -1 -1 0.000 0 0 -1 0 0 2
	 2250 900 2250 1710
2 1 0 1 0 7 60 -1 -1 0.000 0 0 -1 0 0 2
	 2025 900 3375 900
2 1 0 1 0 7 60 -1 -1 0.000 0 0 -1 0 0 2
	 3060 900 3060 675
4 1 -1 50 0 16 8 0.0000 4 105 90 3330 450 B\001
4 1 -1 50 0 16 8 0.0000 4 105 90 675 495 A\001
4 1 -1 50 0 16 8 0.0000 4 105 180 1035 1350 R1\001
4 1 -1 50 0 16 8 0.0000 4 105 180 2610 1350 R2\001
