#FIG 3.2  Produced by xfig version 3.2.5c
Portrait
Center
Metric
A4      
100.00
Single
-2
1200 2
6 855 1125 1440 1395
2 2 0 1 0 6 51 -1 36 0.000 0 0 -1 0 0 5
	 900 1305 1080 1305 1080 1350 900 1350 900 1305
2 2 0 1 0 6 51 -1 36 0.000 0 0 -1 0 0 5
	 1170 1305 1350 1305 1350 1350 1170 1350 1170 1305
2 2 0 1 0 6 51 -1 36 0.000 0 0 -1 0 0 5
	 1035 1125 1215 1125 1215 1170 1035 1170 1035 1125
2 2 0 1 -1 11 52 0 36 0.000 0 0 -1 0 0 5
	 855 1350 1395 1350 1395 1125 855 1125 855 1350
2 2 0 1 -1 0 55 0 20 0.000 0 0 -1 0 0 5
	 900 1395 1440 1395 1440 1170 900 1170 900 1395
-6
6 1305 2475 1890 2745
2 2 0 1 0 6 51 -1 36 0.000 0 0 -1 0 0 5
	 1350 2655 1530 2655 1530 2700 1350 2700 1350 2655
2 2 0 1 0 6 51 -1 36 0.000 0 0 -1 0 0 5
	 1620 2655 1800 2655 1800 2700 1620 2700 1620 2655
2 2 0 1 0 6 51 -1 36 0.000 0 0 -1 0 0 5
	 1485 2475 1665 2475 1665 2520 1485 2520 1485 2475
2 2 0 1 -1 11 52 0 36 0.000 0 0 -1 0 0 5
	 1305 2700 1845 2700 1845 2475 1305 2475 1305 2700
2 2 0 1 -1 0 55 0 20 0.000 0 0 -1 0 0 5
	 1350 2745 1890 2745 1890 2520 1350 2520 1350 2745
-6
6 405 1800 990 2070
2 2 0 1 0 6 51 -1 36 0.000 0 0 -1 0 0 5
	 450 1980 630 1980 630 2025 450 2025 450 1980
2 2 0 1 0 6 51 -1 36 0.000 0 0 -1 0 0 5
	 720 1980 900 1980 900 2025 720 2025 720 1980
2 2 0 1 0 6 51 -1 36 0.000 0 0 -1 0 0 5
	 585 1800 765 1800 765 1845 585 1845 585 1800
2 2 0 1 -1 11 52 0 36 0.000 0 0 -1 0 0 5
	 405 2025 945 2025 945 1800 405 1800 405 2025
2 2 0 1 -1 0 55 0 20 0.000 0 0 -1 0 0 5
	 450 2070 990 2070 990 1845 450 1845 450 2070
-6
6 1755 1800 2340 2070
2 2 0 1 0 6 51 -1 36 0.000 0 0 -1 0 0 5
	 1800 1980 1980 1980 1980 2025 1800 2025 1800 1980
2 2 0 1 0 6 51 -1 36 0.000 0 0 -1 0 0 5
	 2070 1980 2250 1980 2250 2025 2070 2025 2070 1980
2 2 0 1 0 6 51 -1 36 0.000 0 0 -1 0 0 5
	 1935 1800 2115 1800 2115 1845 1935 1845 1935 1800
2 2 0 1 -1 11 52 0 36 0.000 0 0 -1 0 0 5
	 1755 2025 2295 2025 2295 1800 1755 1800 1755 2025
2 2 0 1 -1 0 55 0 20 0.000 0 0 -1 0 0 5
	 1800 2070 2340 2070 2340 1845 1800 1845 1800 2070
-6
6 2205 2475 2790 2745
2 2 0 1 0 6 51 -1 36 0.000 0 0 -1 0 0 5
	 2250 2655 2430 2655 2430 2700 2250 2700 2250 2655
2 2 0 1 0 6 51 -1 36 0.000 0 0 -1 0 0 5
	 2520 2655 2700 2655 2700 2700 2520 2700 2520 2655
2 2 0 1 0 6 51 -1 36 0.000 0 0 -1 0 0 5
	 2385 2475 2565 2475 2565 2520 2385 2520 2385 2475
2 2 0 1 -1 11 52 0 36 0.000 0 0 -1 0 0 5
	 2205 2700 2745 2700 2745 2475 2205 2475 2205 2700
2 2 0 1 -1 0 55 0 20 0.000 0 0 -1 0 0 5
	 2250 2745 2790 2745 2790 2520 2250 2520 2250 2745
-6
2 1 0 1 -1 7 10 0 -1 0.000 0 0 -1 0 0 2
	 675 2025 675 2160
2 1 0 1 -1 7 10 0 -1 0.000 0 0 -1 0 0 2
	 270 2160 990 2160
2 1 0 1 -1 7 10 0 -1 0.000 0 0 -1 0 0 2
	 1575 2700 1575 2835
2 1 0 1 -1 7 10 0 -1 0.000 0 0 -1 0 0 2
	 1170 2835 1890 2835
2 1 0 1 -1 7 10 0 -1 0.000 0 0 -1 0 0 2
	 2475 2700 2475 2835
2 1 0 1 -1 7 10 0 -1 0.000 0 0 -1 0 0 2
	 2115 2835 2835 2835
3 0 0 3 4 7 10 0 -1 0.000 0 1 0 6
	1 1 1.00 60.00 79.50
	 1125 810 1125 1170 1125 1215 1080 1305 675 1665 675 1935
	 0.000 1.000 1.000 1.000 1.000 0.000
3 0 0 3 4 7 10 0 -1 0.000 0 1 0 11
	1 1 1.00 60.00 79.50
	 1125 810 1125 1170 1125 1215 1170 1305 2025 1665 2025 1890
	 2025 1935 1980 1980 1620 2295 1575 2385 1575 2610
	 0.000 1.000 1.000 1.000 1.000 1.000 1.000 1.000
	 1.000 1.000 0.000
3 0 0 3 4 7 10 0 -1 0.000 0 1 0 11
	1 1 1.00 60.00 79.50
	 1125 810 1125 1170 1125 1215 1170 1305 2025 1665 2025 1890
	 2025 1935 2070 1980 2430 2295 2475 2385 2475 2610
	 0.000 1.000 1.000 1.000 1.000 1.000 1.000 1.000
	 1.000 1.000 0.000
3 0 0 2 1 7 10 0 -1 0.000 0 1 0 4
	1 1 1.00 60.00 79.50
	 1530 2565 1530 2340 1575 2250 1800 2070
	 0.000 1.000 1.000 0.000
3 0 0 2 1 7 10 0 -1 0.000 0 1 0 4
	1 1 1.00 60.00 79.50
	 2520 2565 2520 2340 2475 2250 2250 2070
	 0.000 1.000 1.000 0.000
3 0 0 2 1 7 10 0 -1 0.000 0 1 0 4
	1 1 1.00 60.00 79.50
	 2070 1890 2070 1710 1845 1530 1440 1350
	 0.000 1.000 1.000 0.000
4 0 1 10 0 16 6 0.0000 4 180 1710 2385 2115 (3) E->C : prune G1\001
4 2 1 10 0 16 6 0.0000 4 180 1710 1485 2430 (2) D->C : prune G1\001
4 0 1 10 0 16 6 0.0000 4 180 1710 1755 1440 (4) C->A : prune G1\001
4 1 -1 10 0 16 7 0.0000 4 135 450 675 2295 G1/G2\001
4 1 -1 10 0 16 7 0.0000 4 135 450 1575 2970 G2/G3\001
4 1 -1 10 0 16 7 0.0000 4 135 180 2475 2970 G4\001
4 0 -1 10 0 16 6 0.0000 4 165 810 1170 990 (1) S->G1\001
4 0 -1 10 0 16 7 0.0000 4 135 90 270 1980 B\001
4 0 -1 10 0 16 7 0.0000 4 135 90 2880 2655 E\001
4 0 -1 10 0 16 7 0.0000 4 135 90 1170 2655 D\001
4 0 -1 10 0 16 7 0.0000 4 135 90 2430 1980 C\001
4 0 -1 10 0 16 7 0.0000 4 135 90 720 1305 A\001
