#FIG 3.2  Produced by xfig version 3.2.5c
Portrait
Center
Metric
A4      
100.00
Single
-2
1200 2
2 1 0 1 -1 7 50 0 -1 0.000 0 0 -1 0 0 2
	 450 1800 3825 1800
2 1 0 1 -1 7 50 0 -1 0.000 0 0 -1 0 0 2
	 450 1575 3825 1575
2 1 0 1 -1 7 50 0 -1 0.000 0 0 -1 0 0 3
	 675 1575 675 1350 3825 1350
2 1 0 1 -1 7 50 0 -1 0.000 0 0 -1 0 0 3
	 450 1125 2250 1125 2250 1350
2 1 0 1 -1 7 50 0 -1 0.000 0 0 -1 0 0 2
	 900 1125 900 1350
2 1 0 1 -1 7 50 0 -1 0.000 0 0 -1 0 0 4
	 2475 1350 2475 1125 2925 1125 2925 1575
2 1 0 1 -1 7 50 0 -1 0.000 0 0 -1 0 0 2
	 2925 1125 3825 1125
2 1 0 1 -1 7 50 0 -1 0.000 0 0 -1 0 0 2
	 2475 900 3825 900
2 1 0 1 -1 7 50 0 -1 0.000 0 0 -1 0 0 2
	 2475 675 2475 1125
2 1 0 1 -1 7 50 0 -1 0.000 0 0 -1 0 0 2
	 2025 675 2025 1125
2 1 0 1 -1 7 50 0 -1 0.000 0 0 -1 0 0 2
	 1575 675 1575 1125
2 1 0 1 -1 7 50 0 -1 0.000 0 0 -1 0 0 2
	 1125 675 1125 1125
2 1 0 1 -1 7 50 0 -1 0.000 0 0 -1 0 0 2
	 3375 1125 3375 1350
2 2 0 1 -1 11 51 0 36 0.000 0 0 -1 0 0 5
	 450 675 3825 675 3825 2250 450 2250 450 675
2 2 0 1 -1 0 52 0 20 0.000 0 0 -1 0 0 5
	 495 720 3870 720 3870 2295 495 2295 495 720
4 1 -1 50 0 17 7 0.0000 4 165 2070 3150 855 R\351pertoire des sessions\001
4 1 -1 50 0 16 8 0.0000 4 135 360 675 1305 RSVP\001
4 1 -1 50 0 16 8 0.0000 4 135 900 1575 1305 RTP / RTCP\001
4 1 -1 50 0 16 8 0.0000 4 135 270 1800 1530 UDP\001
4 1 -1 50 0 16 8 0.0000 4 135 180 2160 1755 IP\001
4 1 -1 50 0 16 8 0.0000 4 135 270 2700 1305 SAP\001
4 1 -1 50 0 16 8 0.0000 4 135 360 3150 1305 HTTP\001
4 1 -1 50 0 16 8 0.0000 4 135 360 3600 1305 SMTP\001
4 1 -1 50 0 16 8 0.0000 4 135 270 3375 1530 TCP\001
4 1 -1 50 0 16 8 0.0000 4 135 270 3150 1080 SDP\001
4 1 -1 50 0 17 7 0.0000 4 135 720 810 810 Contr\364le\001
4 1 -1 50 0 17 7 0.0000 4 135 450 810 915 de la\001
4 1 -1 50 0 17 7 0.0000 4 135 900 810 1020 conf\351rence\001
4 1 -1 50 0 17 7 0.0000 4 135 450 1350 945 Audio\001
4 1 -1 50 0 17 7 0.0000 4 135 450 1800 945 Vid\351o\001
4 1 -1 50 0 17 7 0.0000 4 135 540 2250 855 Autres\001
4 1 -1 50 0 17 7 0.0000 4 135 540 2250 1005 outils\001
