#FIG 3.2  Produced by xfig version 3.2.5c
Portrait
Center
Metric
A4      
100.00
Single
-2
1200 2
2 2 0 1 0 0 52 -1 20 0.000 0 0 -1 0 0 5
	 270 270 3870 270 3870 2295 270 2295 270 270
2 2 0 0 0 6 51 -1 36 0.000 0 0 -1 0 0 5
	 225 225 3825 225 3825 2250 225 2250 225 225
2 1 0 1 -1 -1 50 0 -1 0.000 0 0 -1 0 0 2
	 225 225 3825 225
2 1 0 1 -1 -1 50 0 -1 0.000 0 0 -1 0 0 2
	 225 450 3825 450
2 1 0 1 -1 7 50 0 -1 0.000 0 0 -1 0 0 2
	 1125 225 1125 675
2 1 0 1 -1 7 50 0 -1 0.000 0 0 -1 0 0 1
	 585 225
2 1 0 1 -1 7 50 0 -1 0.000 0 0 -1 0 0 2
	 675 225 675 450
2 1 0 1 -1 -1 50 0 -1 0.000 0 0 -1 0 0 2
	 2025 225 2025 900
2 1 1 1 -1 7 50 0 -1 2.000 0 0 -1 0 0 2
	 225 1350 225 1575
2 1 1 1 -1 7 50 0 -1 2.000 0 0 -1 0 0 2
	 3825 1350 3825 1575
2 1 0 1 -1 7 50 0 -1 0.000 0 0 -1 0 0 2
	 225 225 225 675
2 1 0 1 -1 7 50 0 -1 0.000 0 0 -1 0 0 2
	 3825 225 3825 675
2 1 0 1 -1 -1 50 0 -1 0.000 0 0 -1 0 0 2
	 225 1575 3825 1575
2 1 0 1 -1 -1 50 0 -1 0.000 0 0 -1 0 0 2
	 225 2250 3825 2250
2 1 0 1 -1 7 50 0 -1 0.000 0 0 -1 0 0 2
	 225 2115 225 2250
2 1 0 1 -1 7 50 0 -1 0.000 0 0 -1 0 0 2
	 3825 2115 3825 2250
2 1 1 1 -1 7 50 0 -1 2.000 0 0 -1 0 0 2
	 225 1890 225 2115
2 1 1 1 -1 7 50 0 -1 2.000 0 0 -1 0 0 2
	 3825 1890 3825 2115
2 1 0 1 -1 -1 50 0 -1 0.000 0 0 -1 0 0 2
	 225 1800 3825 1800
2 1 0 1 -1 7 50 0 -1 0.000 0 0 -1 0 0 2
	 2925 1575 2925 1800
2 1 0 1 -1 7 50 0 -1 0.000 0 0 -1 0 0 2
	 225 1575 225 1890
2 1 0 1 -1 7 50 0 -1 0.000 0 0 -1 0 0 2
	 3825 1575 3825 1890
2 1 0 1 -1 -1 50 0 -1 0.000 0 0 -1 0 0 2
	 225 675 3825 675
2 1 0 1 -1 -1 50 0 -1 0.000 0 0 -1 0 0 2
	 225 1350 3825 1350
2 1 0 1 -1 7 50 0 -1 0.000 0 0 -1 0 0 2
	 225 1215 225 1350
2 1 0 1 -1 7 50 0 -1 0.000 0 0 -1 0 0 2
	 3825 1215 3825 1350
2 1 1 1 -1 7 50 0 -1 2.000 0 0 -1 0 0 2
	 225 990 225 1215
2 1 1 1 -1 7 50 0 -1 2.000 0 0 -1 0 0 2
	 3825 990 3825 1215
2 1 0 1 -1 -1 50 0 -1 0.000 0 0 -1 0 0 2
	 225 900 3825 900
2 1 0 1 -1 7 50 0 -1 0.000 0 0 -1 0 0 2
	 2925 675 2925 900
2 1 0 1 -1 7 50 0 -1 0.000 0 0 -1 0 0 2
	 225 675 225 990
2 1 0 1 -1 7 50 0 -1 0.000 0 0 -1 0 0 2
	 3825 675 3825 990
2 1 0 1 -1 7 50 0 -1 0.000 0 0 -1 0 0 2
	 2025 1575 2025 1800
2 1 0 1 -1 7 50 0 -1 0.000 0 0 -1 0 0 7
	 3915 675 3960 720 3960 945 4005 990 3960 1035 3960 1305
	 3915 1350
2 1 0 1 -1 7 50 0 -1 0.000 0 0 -1 0 0 7
	 3915 1575 3960 1620 3960 1845 4005 1890 3960 1935 3960 2205
	 3915 2250
4 0 -1 50 0 16 8 0.0000 4 90 75 225 180 0\001
4 0 -1 50 0 16 8 0.0000 4 90 75 675 180 4\001
4 0 -1 50 0 16 8 0.0000 4 90 75 1125 180 8\001
4 0 -1 50 0 16 8 0.0000 4 90 150 2025 180 16\001
4 0 -1 50 0 16 8 0.0000 4 90 150 2925 180 24\001
4 2 -1 50 0 16 8 0.0000 4 90 150 3825 180 31\001
4 1 -1 50 0 16 7 0.0000 4 120 255 1575 405 Type\001
4 1 -1 50 0 16 7 0.0000 4 90 900 2925 405 RSVP Checksum\001
4 1 -1 50 0 16 7 0.0000 4 120 585 1575 630 (Reserved)\001
4 1 -1 50 0 16 7 0.0000 4 120 285 900 405 Flags\001
4 1 -1 50 0 16 7 0.0000 4 90 390 450 405 Version\001
4 1 -1 50 0 16 7 0.0000 4 120 675 2925 630 RSVP Length\001
4 1 -1 50 0 16 7 0.0000 4 105 525 675 630 Send_TTL\001
4 1 -1 50 0 16 12 0.0000 4 15 180 2025 1485 ...\001
4 1 -1 50 0 16 7 0.0000 4 120 390 3375 1755 C-Type\001
4 1 -1 50 0 16 7 0.0000 4 90 600 2475 1755 Class-Num\001
4 1 -1 50 0 16 7 0.0000 4 120 330 1125 1755 Length\001
4 1 -1 50 0 16 7 0.0000 4 120 390 3375 855 C-Type\001
4 1 -1 50 0 16 7 0.0000 4 90 600 2475 855 Class-Num\001
4 1 -1 50 0 16 7 0.0000 4 120 330 1125 855 Length\001
4 0 -1 50 0 16 7 0.0000 4 90 60 4050 1035 1\001
4 0 -1 50 0 16 7 0.0000 4 60 60 4050 1935 n\001
