#FIG 3.2  Produced by xfig version 3.2.5c
Portrait
Center
Metric
A4      
100.00
Single
-2
1200 2
2 1 0 1 -1 -1 0 0 -1 0.000 0 0 -1 1 0 2
	1 1 1.00 45.00 90.00
	 3600 900 3600 3150
2 1 0 1 -1 -1 0 0 -1 0.000 0 0 -1 1 0 2
	1 1 1.00 45.00 90.00
	 1800 900 1800 3150
2 1 0 1 -1 -1 0 0 -1 0.000 0 0 -1 1 0 2
	1 1 1.00 45.00 90.00
	 1845 1125 3555 1575
2 1 0 1 -1 -1 0 0 -1 0.000 0 0 -1 1 0 2
	1 1 1.00 45.00 90.00
	 3555 1800 1845 2250
2 1 0 1 -1 -1 0 0 -1 0.000 0 0 -1 1 0 2
	1 1 1.00 45.00 90.00
	 1845 2430 3555 2895
4 1 -1 0 0 16 10 0.0000 4 120 45 3600 3285 t\001
4 1 -1 0 0 16 10 0.0000 4 120 45 1800 3285 t\001
4 0 8 0 0 20 8 0.0000 4 120 480 1980 1125 seq=2500\001
4 2 8 0 0 20 8 0.0000 4 120 480 2925 1800 seq=6800\001
4 0 12 0 0 20 8 0.0000 4 105 480 2970 1800 ack=2520\001
4 0 0 50 0 17 8 0.0000 6 90 585 2790 2115 40 octets\001
4 0 0 50 0 17 8 0.0000 6 90 435 2790 2655 0 octet\001
4 0 0 50 0 17 8 0.0000 6 90 585 2790 1350 20 octets\001
4 2 8 0 0 20 8 0.0000 4 120 480 2430 2430 seq=2520\001
4 0 12 0 0 20 8 0.0000 4 105 480 2475 2430 ack=6840\001
