#FIG 3.2  Produced by xfig version 3.2.7b
Landscape
Center
Metric
A4
100.00
Single
-2
1200 2
0 32 #c6b797
0 33 #eff8ff
0 34 #dccba6
0 35 #404040
0 36 #808080
0 37 #c0c0c0
0 38 #e0e0e0
0 39 #8e8f8e
0 40 #aaaaaa
0 41 #555555
0 42 #bebebe
0 43 #515151
0 44 #e7e3e7
0 45 #000049
0 46 #797979
0 47 #303430
0 48 #414141
0 49 #c7b696
0 50 #8e8e8e
0 51 #414541
0 52 #8e8e8e
0 53 #cccccc
0 54 #868286
0 55 #c7c3c7
0 56 #444444
0 57 #868686
0 58 #c7c7c7
0 59 #e7e7e7
0 60 #f7f7f7
0 61 #9e9e9e
0 62 #717571
0 63 #effbff
0 64 #666666
0 65 #909090
0 66 #e6e4ce
0 67 #9b9b9b
0 68 #ce9100
0 69 #f762aa
0 70 #7070ff
0 71 #5f5f5f
0 72 #e2e2ee
0 73 #94949a
0 74 #dbdbdb
0 75 #a1a1b7
0 76 #9c0000
0 77 #000000
0 78 #ffffff
0 79 #dd9d93
0 80 #f1ece0
0 81 #c3c3c3
0 82 #e2c8a8
0 83 #e1e1e1
0 84 #d2d2d2
0 85 #ededed
0 86 #da7a1a
0 87 #f1e41a
0 88 #887dc2
0 89 #d6d6d6
0 90 #8c8ca5
0 91 #4a4a4a
0 92 #5a5a5a
0 93 #636363
0 94 #b79b73
0 95 #4193ff
0 96 #bf703b
0 97 #db7700
0 98 #dab800
0 99 #006400
0 100 #5a6b3b
0 101 #d3d3d3
0 102 #8e8ea4
0 103 #f3b95d
0 104 #89996b
0 105 #646464
0 106 #b7e6ff
0 107 #86c0ec
0 108 #bdbdbd
0 109 #d39552
0 110 #98d2fe
0 111 #8c6b6b
0 112 #8c9c6b
0 113 #f76b00
0 114 #5a6b39
0 115 #8c9c6b
0 116 #8c9c7b
0 117 #184a18
0 118 #adadad
0 119 #f7bd5a
0 120 #636b9c
0 121 #de0000
0 122 #adadad
0 123 #f3eed3
0 124 #f5ae5d
0 125 #95ce99
0 126 #b5157d
0 127 #eeeeee
0 128 #848484
0 129 #7b7b7b
0 130 #005a00
0 131 #e77373
0 132 #ffcb31
0 133 #29794a
0 134 #de2821
0 135 #2159c6
0 136 #f8f8f8
0 137 #e6e6e6
0 138 #a5b5c6
0 139 #6b6b94
0 140 #846b6b
0 141 #529c4a
0 142 #d6e7e7
0 143 #526363
0 144 #186b4a
0 145 #21845a
0 146 #dedede
0 147 #526b29
0 148 #949494
0 149 #006300
0 150 #9ca5b5
0 151 #ff9400
0 152 #ff9400
0 153 #00634a
0 154 #7b844a
0 155 #63737b
0 156 #e7bd7b
0 157 #a0a0a0
# Gear
# drawn by P. David
6 2705 450 3150 895
1 1 0 0 0 12 51 -1 34 0.000 1 0.0000 2928 672 166 167 2928 672 3094 672
2 3 0 0 0 12 51 -1 34 0.000 0 0 7 0 0 5
	 3030 473 2967 539 3024 572 3049 484 3030 473
2 3 0 0 0 12 51 -1 34 0.000 0 0 7 0 0 5
	 3149 661 3061 639 3061 706 3150 683 3149 661
2 3 0 0 0 12 51 -1 34 0.000 0 0 7 0 0 5
	 3115 552 3027 577 3060 635 3126 571 3115 552
2 3 0 0 0 12 51 -1 34 0.000 0 0 7 0 0 5
	 2916 450 2894 539 2961 539 2939 450 2916 450
2 3 0 0 0 12 51 -1 34 0.000 0 0 7 0 0 5
	 2806 484 2831 572 2889 539 2825 473 2806 484
2 3 0 0 0 12 51 -1 34 0.000 0 0 7 0 0 5
	 2728 566 2794 630 2828 572 2740 547 2728 566
2 3 0 0 0 12 51 -1 34 0.000 0 0 7 0 0 5
	 2706 678 2794 700 2794 633 2705 656 2706 678
2 3 0 0 0 12 51 -1 34 0.000 0 0 7 0 0 5
	 2740 792 2828 767 2794 709 2728 773 2740 792
2 3 0 0 0 12 51 -1 34 0.000 0 0 7 0 0 5
	 2825 871 2889 806 2831 772 2806 860 2825 871
2 3 0 0 0 12 51 -1 34 0.000 0 0 7 0 0 5
	 2939 894 2961 806 2894 806 2916 895 2939 894
2 3 0 0 0 12 51 -1 34 0.000 0 0 7 0 0 5
	 3053 860 3027 772 2970 806 3033 871 3053 860
2 3 0 0 0 12 51 -1 34 0.000 0 0 7 0 0 5
	 3127 775 3061 711 3027 769 3115 794 3127 775
-6
# Gear
# drawn by P. David
6 4050 450 4495 895
1 1 0 0 0 12 51 -1 34 0.000 1 0.0000 4273 672 166 167 4273 672 4439 672
2 3 0 0 0 12 51 -1 34 0.000 0 0 7 0 0 5
	 4375 473 4312 539 4369 572 4394 484 4375 473
2 3 0 0 0 12 51 -1 34 0.000 0 0 7 0 0 5
	 4494 661 4406 639 4406 706 4495 683 4494 661
2 3 0 0 0 12 51 -1 34 0.000 0 0 7 0 0 5
	 4460 552 4372 577 4405 635 4471 571 4460 552
2 3 0 0 0 12 51 -1 34 0.000 0 0 7 0 0 5
	 4261 450 4239 539 4306 539 4284 450 4261 450
2 3 0 0 0 12 51 -1 34 0.000 0 0 7 0 0 5
	 4151 484 4176 572 4234 539 4170 473 4151 484
2 3 0 0 0 12 51 -1 34 0.000 0 0 7 0 0 5
	 4073 566 4139 630 4173 572 4085 547 4073 566
2 3 0 0 0 12 51 -1 34 0.000 0 0 7 0 0 5
	 4051 678 4139 700 4139 633 4050 656 4051 678
2 3 0 0 0 12 51 -1 34 0.000 0 0 7 0 0 5
	 4085 792 4173 767 4139 709 4073 773 4085 792
2 3 0 0 0 12 51 -1 34 0.000 0 0 7 0 0 5
	 4170 871 4234 806 4176 772 4151 860 4170 871
2 3 0 0 0 12 51 -1 34 0.000 0 0 7 0 0 5
	 4284 894 4306 806 4239 806 4261 895 4284 894
2 3 0 0 0 12 51 -1 34 0.000 0 0 7 0 0 5
	 4398 860 4372 772 4315 806 4378 871 4398 860
2 3 0 0 0 12 51 -1 34 0.000 0 0 7 0 0 5
	 4472 775 4406 711 4372 769 4460 794 4472 775
-6
# Gear
# drawn by P. David
6 4955 450 5400 895
1 1 0 0 0 12 51 -1 34 0.000 1 0.0000 5178 672 166 167 5178 672 5344 672
2 3 0 0 0 12 51 -1 34 0.000 0 0 7 0 0 5
	 5280 473 5217 539 5274 572 5299 484 5280 473
2 3 0 0 0 12 51 -1 34 0.000 0 0 7 0 0 5
	 5399 661 5311 639 5311 706 5400 683 5399 661
2 3 0 0 0 12 51 -1 34 0.000 0 0 7 0 0 5
	 5365 552 5277 577 5310 635 5376 571 5365 552
2 3 0 0 0 12 51 -1 34 0.000 0 0 7 0 0 5
	 5166 450 5144 539 5211 539 5189 450 5166 450
2 3 0 0 0 12 51 -1 34 0.000 0 0 7 0 0 5
	 5056 484 5081 572 5139 539 5075 473 5056 484
2 3 0 0 0 12 51 -1 34 0.000 0 0 7 0 0 5
	 4978 566 5044 630 5078 572 4990 547 4978 566
2 3 0 0 0 12 51 -1 34 0.000 0 0 7 0 0 5
	 4956 678 5044 700 5044 633 4955 656 4956 678
2 3 0 0 0 12 51 -1 34 0.000 0 0 7 0 0 5
	 4990 792 5078 767 5044 709 4978 773 4990 792
2 3 0 0 0 12 51 -1 34 0.000 0 0 7 0 0 5
	 5075 871 5139 806 5081 772 5056 860 5075 871
2 3 0 0 0 12 51 -1 34 0.000 0 0 7 0 0 5
	 5189 894 5211 806 5144 806 5166 895 5189 894
2 3 0 0 0 12 51 -1 34 0.000 0 0 7 0 0 5
	 5303 860 5277 772 5220 806 5283 871 5303 860
2 3 0 0 0 12 51 -1 34 0.000 0 0 7 0 0 5
	 5377 775 5311 711 5277 769 5365 794 5377 775
-6
# An enveloppe
# drawn by P. David
6 2070 315 2430 495
2 2 0 1 0 7 50 0 -1 0.000 0 0 -1 0 0 5
	 2070 315 2430 315 2430 495 2070 495 2070 315
2 1 0 1 0 7 50 0 -1 0.000 0 0 -1 0 0 3
	 2070 315 2250 387 2430 315
-6
# An enveloppe
# drawn by P. David
6 3420 315 3780 495
2 2 0 1 0 7 50 0 -1 0.000 0 0 -1 0 0 5
	 3420 315 3780 315 3780 495 3420 495 3420 315
2 1 0 1 0 7 50 0 -1 0.000 0 0 -1 0 0 3
	 3420 315 3600 387 3780 315
-6
# An enveloppe
# drawn by P. David
6 720 765 1080 945
2 2 0 1 0 7 50 0 -1 0.000 0 0 -1 0 0 5
	 720 765 1080 765 1080 945 720 945 720 765
2 1 0 1 0 7 50 0 -1 0.000 0 0 -1 0 0 3
	 720 765 900 837 1080 765
-6
# Gear
# drawn by P. David
6 1350 450 1795 895
1 1 0 0 0 24 51 -1 34 0.000 1 0.0000 1573 672 166 167 1573 672 1739 672
2 3 0 0 0 24 51 -1 34 0.000 0 0 7 0 0 5
	 1675 473 1612 539 1669 572 1694 484 1675 473
2 3 0 0 0 24 51 -1 34 0.000 0 0 7 0 0 5
	 1794 661 1706 639 1706 706 1795 683 1794 661
2 3 0 0 0 24 51 -1 34 0.000 0 0 7 0 0 5
	 1760 552 1672 577 1705 635 1771 571 1760 552
2 3 0 0 0 24 51 -1 34 0.000 0 0 7 0 0 5
	 1561 450 1539 539 1606 539 1584 450 1561 450
2 3 0 0 0 24 51 -1 34 0.000 0 0 7 0 0 5
	 1451 484 1476 572 1534 539 1470 473 1451 484
2 3 0 0 0 24 51 -1 34 0.000 0 0 7 0 0 5
	 1373 566 1439 630 1473 572 1385 547 1373 566
2 3 0 0 0 24 51 -1 34 0.000 0 0 7 0 0 5
	 1351 678 1439 700 1439 633 1350 656 1351 678
2 3 0 0 0 24 51 -1 34 0.000 0 0 7 0 0 5
	 1385 792 1473 767 1439 709 1373 773 1385 792
2 3 0 0 0 24 51 -1 34 0.000 0 0 7 0 0 5
	 1470 871 1534 806 1476 772 1451 860 1470 871
2 3 0 0 0 24 51 -1 34 0.000 0 0 7 0 0 5
	 1584 894 1606 806 1539 806 1561 895 1584 894
2 3 0 0 0 24 51 -1 34 0.000 0 0 7 0 0 5
	 1698 860 1672 772 1615 806 1678 871 1698 860
2 3 0 0 0 24 51 -1 34 0.000 0 0 7 0 0 5
	 1772 775 1706 711 1672 769 1760 794 1772 775
-6
# A laptop
# drawn by P. David
6 540 1350 1239 1800
2 2 0 0 0 7 60 -1 16 0.000 0 0 -1 0 0 5
	 615 1375 1164 1375 1164 1692 615 1692 615 1375
2 3 0 0 0 7 60 -1 2 0.000 1 0 -1 0 0 5
	 615 1725 582 1758 1197 1758 1164 1725 615 1725
2 3 0 0 0 7 61 -1 6 0.000 1 0 -1 0 0 5
	 607 1717 1172 1717 1239 1783 540 1783 607 1717
2 2 0 0 0 7 60 -1 3 0.000 0 0 -1 0 0 5
	 540 1783 1239 1783 1239 1792 540 1792 540 1783
2 3 0 0 0 7 60 -1 3 0.000 1 0 -1 0 0 5
	 540 1792 565 1800 1214 1800 1239 1792 540 1792
2 3 0 0 0 7 60 -1 10 0.000 0 0 -1 0 0 5
	 825 1761 913 1761 919 1779 812 1779 825 1761
2 4 0 0 0 7 61 -1 3 0.000 0 0 1 0 0 5
	 1181 1717 598 1717 598 1350 1181 1350 1181 1717
-6
# Gear
# drawn by P. David
6 725 1395 1035 1705
1 3 0 0 0 19 51 -1 34 0.000 1 0.0000 880 1550 116 116 880 1550 996 1550
2 3 0 0 0 19 51 -1 34 0.000 0 0 7 0 0 5
	 951 1411 908 1457 947 1480 965 1419 951 1411
2 3 0 0 0 19 51 -1 34 0.000 0 0 7 0 0 5
	 1034 1542 973 1527 973 1573 1035 1557 1034 1542
2 3 0 0 0 19 51 -1 34 0.000 0 0 7 0 0 5
	 1011 1466 949 1483 972 1524 1018 1479 1011 1466
2 3 0 0 0 19 51 -1 34 0.000 0 0 7 0 0 5
	 872 1395 857 1457 903 1457 888 1395 872 1395
2 3 0 0 0 19 51 -1 34 0.000 0 0 7 0 0 5
	 795 1419 813 1480 853 1457 809 1411 795 1419
2 3 0 0 0 19 51 -1 34 0.000 0 0 7 0 0 5
	 741 1476 787 1520 811 1480 749 1463 741 1476
2 3 0 0 0 19 51 -1 34 0.000 0 0 7 0 0 5
	 726 1554 787 1569 787 1522 725 1539 726 1554
2 3 0 0 0 19 51 -1 34 0.000 0 0 7 0 0 5
	 749 1633 811 1616 787 1575 741 1620 749 1633
2 3 0 0 0 19 51 -1 34 0.000 0 0 7 0 0 5
	 809 1688 853 1643 813 1619 795 1681 809 1688
2 3 0 0 0 19 51 -1 34 0.000 0 0 7 0 0 5
	 888 1704 903 1643 857 1643 872 1705 888 1704
2 3 0 0 0 19 51 -1 34 0.000 0 0 7 0 0 5
	 967 1681 949 1619 910 1643 953 1688 967 1681
2 3 0 0 0 19 51 -1 34 0.000 0 0 7 0 0 5
	 1019 1621 973 1577 949 1617 1011 1635 1019 1621
-6
# An enveloppe
# drawn by P. David
6 5535 585 5895 765
2 2 0 1 0 7 50 0 -1 0.000 0 0 -1 0 0 5
	 5535 585 5895 585 5895 765 5535 765 5535 585
2 1 0 1 0 7 50 0 -1 0.000 0 0 -1 0 0 3
	 5535 585 5715 657 5895 585
-6
# An icon for a file, a disk or a SGBD
# drawn by P. David
6 5490 1080 6036 1845
1 1 0 1 0 11 49 0 32 0.000 1 0.0000 5763 1190 273 110 5763 1190 6036 1190
1 1 0 1 0 11 51 0 32 0.000 1 0.0000 5763 1735 273 110 5763 1735 6036 1735
2 1 0 1 0 11 49 0 17 0.000 0 0 -1 0 0 2
	 5490 1190 5490 1735
2 1 0 1 0 11 49 0 32 0.000 0 0 -1 0 0 2
	 6036 1190 6036 1735
2 2 0 0 7 11 50 0 32 0.000 0 0 -1 0 0 5
	 5490 1190 6036 1190 6036 1735 5490 1735 5490 1190
-6
# Gear
# drawn by P. David
6 6440 815 6885 1260
1 1 0 0 0 21 51 -1 34 0.000 1 0.0000 6663 1037 166 167 6663 1037 6829 1037
2 3 0 0 0 21 51 -1 34 0.000 0 0 7 0 0 5
	 6765 838 6702 904 6759 937 6784 849 6765 838
2 3 0 0 0 21 51 -1 34 0.000 0 0 7 0 0 5
	 6884 1026 6796 1004 6796 1071 6885 1048 6884 1026
2 3 0 0 0 21 51 -1 34 0.000 0 0 7 0 0 5
	 6850 917 6762 942 6795 1000 6861 936 6850 917
2 3 0 0 0 21 51 -1 34 0.000 0 0 7 0 0 5
	 6651 815 6629 904 6696 904 6674 815 6651 815
2 3 0 0 0 21 51 -1 34 0.000 0 0 7 0 0 5
	 6541 849 6566 937 6624 904 6560 838 6541 849
2 3 0 0 0 21 51 -1 34 0.000 0 0 7 0 0 5
	 6463 931 6529 995 6563 937 6475 912 6463 931
2 3 0 0 0 21 51 -1 34 0.000 0 0 7 0 0 5
	 6441 1043 6529 1065 6529 998 6440 1021 6441 1043
2 3 0 0 0 21 51 -1 34 0.000 0 0 7 0 0 5
	 6475 1157 6563 1132 6529 1074 6463 1138 6475 1157
2 3 0 0 0 21 51 -1 34 0.000 0 0 7 0 0 5
	 6560 1236 6624 1171 6566 1137 6541 1225 6560 1236
2 3 0 0 0 21 51 -1 34 0.000 0 0 7 0 0 5
	 6674 1259 6696 1171 6629 1171 6651 1260 6674 1259
2 3 0 0 0 21 51 -1 34 0.000 0 0 7 0 0 5
	 6788 1225 6762 1137 6705 1171 6768 1236 6788 1225
2 3 0 0 0 21 51 -1 34 0.000 0 0 7 0 0 5
	 6862 1140 6796 1076 6762 1134 6850 1159 6862 1140
-6
# Gear
# drawn by P. David
6 6440 1805 6885 2250
1 1 0 0 0 15 51 -1 34 0.000 1 0.0000 6663 2027 166 167 6663 2027 6829 2027
2 3 0 0 0 15 51 -1 34 0.000 0 0 7 0 0 5
	 6765 1828 6702 1894 6759 1927 6784 1839 6765 1828
2 3 0 0 0 15 51 -1 34 0.000 0 0 7 0 0 5
	 6884 2016 6796 1994 6796 2061 6885 2038 6884 2016
2 3 0 0 0 15 51 -1 34 0.000 0 0 7 0 0 5
	 6850 1907 6762 1932 6795 1990 6861 1926 6850 1907
2 3 0 0 0 15 51 -1 34 0.000 0 0 7 0 0 5
	 6651 1805 6629 1894 6696 1894 6674 1805 6651 1805
2 3 0 0 0 15 51 -1 34 0.000 0 0 7 0 0 5
	 6541 1839 6566 1927 6624 1894 6560 1828 6541 1839
2 3 0 0 0 15 51 -1 34 0.000 0 0 7 0 0 5
	 6463 1921 6529 1985 6563 1927 6475 1902 6463 1921
2 3 0 0 0 15 51 -1 34 0.000 0 0 7 0 0 5
	 6441 2033 6529 2055 6529 1988 6440 2011 6441 2033
2 3 0 0 0 15 51 -1 34 0.000 0 0 7 0 0 5
	 6475 2147 6563 2122 6529 2064 6463 2128 6475 2147
2 3 0 0 0 15 51 -1 34 0.000 0 0 7 0 0 5
	 6560 2226 6624 2161 6566 2127 6541 2215 6560 2226
2 3 0 0 0 15 51 -1 34 0.000 0 0 7 0 0 5
	 6674 2249 6696 2161 6629 2161 6651 2250 6674 2249
2 3 0 0 0 15 51 -1 34 0.000 0 0 7 0 0 5
	 6788 2215 6762 2127 6705 2161 6768 2226 6788 2215
2 3 0 0 0 15 51 -1 34 0.000 0 0 7 0 0 5
	 6862 2130 6796 2066 6762 2124 6850 2149 6862 2130
-6
# A laptop
# drawn by P. David
6 7335 810 8034 1260
2 2 0 0 0 7 60 -1 16 0.000 0 0 -1 0 0 5
	 7410 835 7959 835 7959 1152 7410 1152 7410 835
2 3 0 0 0 7 60 -1 2 0.000 1 0 -1 0 0 5
	 7410 1185 7377 1218 7992 1218 7959 1185 7410 1185
2 3 0 0 0 7 61 -1 6 0.000 1 0 -1 0 0 5
	 7402 1177 7967 1177 8034 1243 7335 1243 7402 1177
2 2 0 0 0 7 60 -1 3 0.000 0 0 -1 0 0 5
	 7335 1243 8034 1243 8034 1252 7335 1252 7335 1243
2 3 0 0 0 7 60 -1 3 0.000 1 0 -1 0 0 5
	 7335 1252 7360 1260 8009 1260 8034 1252 7335 1252
2 3 0 0 0 7 60 -1 10 0.000 0 0 -1 0 0 5
	 7620 1221 7708 1221 7714 1239 7607 1239 7620 1221
2 4 0 0 0 7 61 -1 3 0.000 0 0 1 0 0 5
	 7976 1177 7393 1177 7393 810 7976 810 7976 1177
-6
# A laptop
# drawn by P. David
6 7335 2250 8034 2700
2 2 0 0 0 7 60 -1 16 0.000 0 0 -1 0 0 5
	 7410 2275 7959 2275 7959 2592 7410 2592 7410 2275
2 3 0 0 0 7 60 -1 2 0.000 1 0 -1 0 0 5
	 7410 2625 7377 2658 7992 2658 7959 2625 7410 2625
2 3 0 0 0 7 61 -1 6 0.000 1 0 -1 0 0 5
	 7402 2617 7967 2617 8034 2683 7335 2683 7402 2617
2 2 0 0 0 7 60 -1 3 0.000 0 0 -1 0 0 5
	 7335 2683 8034 2683 8034 2692 7335 2692 7335 2683
2 3 0 0 0 7 60 -1 3 0.000 1 0 -1 0 0 5
	 7335 2692 7360 2700 8009 2700 8034 2692 7335 2692
2 3 0 0 0 7 60 -1 10 0.000 0 0 -1 0 0 5
	 7620 2661 7708 2661 7714 2679 7607 2679 7620 2661
2 4 0 0 0 7 61 -1 3 0.000 0 0 1 0 0 5
	 7976 2617 7393 2617 7393 2250 7976 2250 7976 2617
-6
# Gear
# drawn by P. David
6 7520 855 7830 1165
1 3 0 0 0 23 51 -1 26 0.000 1 0.0000 7675 1010 116 116 7675 1010 7791 1010
2 3 0 0 0 23 51 -1 26 0.000 0 0 7 0 0 5
	 7746 871 7703 917 7742 940 7760 879 7746 871
2 3 0 0 0 23 51 -1 26 0.000 0 0 7 0 0 5
	 7829 1002 7768 987 7768 1033 7830 1017 7829 1002
2 3 0 0 0 23 51 -1 26 0.000 0 0 7 0 0 5
	 7806 926 7744 943 7767 984 7813 939 7806 926
2 3 0 0 0 23 51 -1 26 0.000 0 0 7 0 0 5
	 7667 855 7652 917 7698 917 7683 855 7667 855
2 3 0 0 0 23 51 -1 26 0.000 0 0 7 0 0 5
	 7590 879 7608 940 7648 917 7604 871 7590 879
2 3 0 0 0 23 51 -1 26 0.000 0 0 7 0 0 5
	 7536 936 7582 980 7606 940 7544 923 7536 936
2 3 0 0 0 23 51 -1 26 0.000 0 0 7 0 0 5
	 7521 1014 7582 1029 7582 982 7520 999 7521 1014
2 3 0 0 0 23 51 -1 26 0.000 0 0 7 0 0 5
	 7544 1093 7606 1076 7582 1035 7536 1080 7544 1093
2 3 0 0 0 23 51 -1 26 0.000 0 0 7 0 0 5
	 7604 1148 7648 1103 7608 1079 7590 1141 7604 1148
2 3 0 0 0 23 51 -1 26 0.000 0 0 7 0 0 5
	 7683 1164 7698 1103 7652 1103 7667 1165 7683 1164
2 3 0 0 0 23 51 -1 26 0.000 0 0 7 0 0 5
	 7762 1141 7744 1079 7705 1103 7748 1148 7762 1141
2 3 0 0 0 23 51 -1 26 0.000 0 0 7 0 0 5
	 7814 1081 7768 1037 7744 1077 7806 1095 7814 1081
-6
# Smartphone
# drawn by P. David
6 7515 1530 7830 2160
1 3 0 1 0 0 60 -1 20 0.000 1 0.0000 7673 2111 22 22 7673 2111 7695 2088
2 2 0 1 0 0 60 -1 20 0.000 0 0 -1 0 0 5
	 7542 1593 7803 1593 7803 2061 7542 2061 7542 1593
2 4 0 1 0 0 60 -1 20 0.000 0 0 1 0 0 5
	 7704 1571 7704 1552 7641 1552 7641 1571 7704 1571
2 4 0 1 0 0 61 -1 4 0.000 0 0 3 0 0 5
	 7830 2160 7515 2160 7515 1530 7830 1530 7830 2160
-6
# Gear
# drawn by P. David
6 7540 1687 7810 1957
1 3 0 0 0 15 51 -1 26 0.000 1 0.0000 7675 1822 101 101 7675 1822 7776 1822
2 3 0 0 0 15 51 -1 26 0.000 0 0 7 0 0 5
	 7737 1701 7699 1741 7733 1761 7749 1708 7737 1701
2 3 0 0 0 15 51 -1 26 0.000 0 0 7 0 0 5
	 7809 1815 7756 1802 7756 1842 7810 1828 7809 1815
2 3 0 0 0 15 51 -1 26 0.000 0 0 7 0 0 5
	 7789 1749 7735 1764 7755 1799 7795 1760 7789 1749
2 3 0 0 0 15 51 -1 26 0.000 0 0 7 0 0 5
	 7668 1687 7655 1741 7695 1741 7682 1687 7668 1687
2 3 0 0 0 15 51 -1 26 0.000 0 0 7 0 0 5
	 7601 1708 7617 1761 7651 1741 7613 1701 7601 1708
2 3 0 0 0 15 51 -1 26 0.000 0 0 7 0 0 5
	 7554 1758 7594 1796 7615 1761 7561 1746 7554 1758
2 3 0 0 0 15 51 -1 26 0.000 0 0 7 0 0 5
	 7541 1825 7594 1839 7594 1798 7540 1812 7541 1825
2 3 0 0 0 15 51 -1 26 0.000 0 0 7 0 0 5
	 7561 1894 7615 1879 7594 1844 7554 1883 7561 1894
2 3 0 0 0 15 51 -1 26 0.000 0 0 7 0 0 5
	 7613 1942 7651 1903 7617 1882 7601 1936 7613 1942
2 3 0 0 0 15 51 -1 26 0.000 0 0 7 0 0 5
	 7682 1956 7695 1903 7655 1903 7668 1957 7682 1956
2 3 0 0 0 15 51 -1 26 0.000 0 0 7 0 0 5
	 7751 1936 7735 1882 7701 1903 7739 1942 7751 1936
2 3 0 0 0 15 51 -1 26 0.000 0 0 7 0 0 5
	 7796 1884 7756 1846 7735 1880 7789 1896 7796 1884
-6
# Gear
# drawn by P. David
6 7520 2274 7830 2584
1 3 0 0 0 15 51 -1 26 0.000 1 0.0000 7675 2429 116 116 7675 2429 7791 2429
2 3 0 0 0 15 51 -1 26 0.000 0 0 7 0 0 5
	 7746 2290 7703 2336 7742 2359 7760 2298 7746 2290
2 3 0 0 0 15 51 -1 26 0.000 0 0 7 0 0 5
	 7829 2421 7768 2406 7768 2452 7830 2436 7829 2421
2 3 0 0 0 15 51 -1 26 0.000 0 0 7 0 0 5
	 7806 2345 7744 2362 7767 2403 7813 2358 7806 2345
2 3 0 0 0 15 51 -1 26 0.000 0 0 7 0 0 5
	 7667 2274 7652 2336 7698 2336 7683 2274 7667 2274
2 3 0 0 0 15 51 -1 26 0.000 0 0 7 0 0 5
	 7590 2298 7608 2359 7648 2336 7604 2290 7590 2298
2 3 0 0 0 15 51 -1 26 0.000 0 0 7 0 0 5
	 7536 2355 7582 2399 7606 2359 7544 2342 7536 2355
2 3 0 0 0 15 51 -1 26 0.000 0 0 7 0 0 5
	 7521 2433 7582 2448 7582 2401 7520 2418 7521 2433
2 3 0 0 0 15 51 -1 26 0.000 0 0 7 0 0 5
	 7544 2512 7606 2495 7582 2454 7536 2499 7544 2512
2 3 0 0 0 15 51 -1 26 0.000 0 0 7 0 0 5
	 7604 2567 7648 2522 7608 2498 7590 2560 7604 2567
2 3 0 0 0 15 51 -1 26 0.000 0 0 7 0 0 5
	 7683 2583 7698 2522 7652 2522 7667 2584 7683 2583
2 3 0 0 0 15 51 -1 26 0.000 0 0 7 0 0 5
	 7762 2560 7744 2498 7705 2522 7748 2567 7762 2560
2 3 0 0 0 15 51 -1 26 0.000 0 0 7 0 0 5
	 7814 2500 7768 2456 7744 2496 7806 2514 7814 2500
-6
# An enveloppe
# drawn by P. David
6 6930 1125 7290 1305
2 2 0 1 0 7 50 0 -1 0.000 0 0 -1 0 0 5
	 6930 1125 7290 1125 7290 1305 6930 1305 6930 1125
2 1 0 1 0 7 50 0 -1 0.000 0 0 -1 0 0 3
	 6930 1125 7110 1197 7290 1125
-6
# An enveloppe
# drawn by P. David
6 7020 2070 7380 2250
2 2 0 1 0 7 50 0 -1 0.000 0 0 -1 0 0 5
	 7020 2070 7380 2070 7380 2250 7020 2250 7020 2070
2 1 0 1 0 7 50 0 -1 0.000 0 0 -1 0 0 3
	 7020 2070 7200 2142 7380 2070
-6
3 0 0 1 0 7 51 -1 -1 0.000 0 1 0 3
	1 1 1.00 60.00 120.00
	 900 1350 1035 990 1350 855
	 0.000 1.000 0.000
3 0 0 1 0 7 51 -1 -1 0.000 0 1 0 3
	1 1 1.00 60.00 120.00
	 1843 671 2248 491 2653 671
	 0.000 1.000 0.000
3 0 0 1 0 7 51 -1 -1 0.000 0 1 0 3
	1 1 1.00 60.00 120.00
	 3186 654 3591 474 3996 654
	 0.000 1.000 0.000
3 0 0 1 0 7 51 -1 -1 0.000 0 1 0 3
	1 1 1.00 60.00 120.00
	 5400 765 5625 810 5760 1035
	 0.000 1.000 0.000
3 0 0 1 0 7 49 -1 -1 0.000 0 1 0 3
	1 1 1.00 60.00 120.00
	 6075 1260 6210 1035 6435 1035
	 0.000 1.000 0.000
3 0 0 1 0 7 49 -1 -1 0.000 0 1 0 3
	1 1 1.00 60.00 120.00
	 6075 1620 6165 1800 6435 1935
	 0.000 1.000 0.000
3 0 0 1 0 7 60 -1 -1 0.000 0 1 0 3
	1 1 1.00 60.00 120.00
	 6930 1035 7110 1125 7380 990
	 0.000 1.000 0.000
3 0 0 1 0 7 60 -1 -1 0.000 0 1 0 3
	1 1 1.00 60.00 120.00
	 6930 2025 7200 2070 7515 1935
	 0.000 1.000 0.000
3 0 0 1 0 7 60 -1 -1 0.000 0 1 0 3
	1 1 1.00 60.00 120.00
	 6885 2205 7065 2340 7380 2340
	 0.000 1.000 0.000
4 1 0 49 -1 16 14 0.0000 4 30 300 4725 675 . . .\001
4 1 0 60 -1 16 6 0.0000 4 90 240 1575 1035 MSA\001
4 1 0 60 -1 16 6 0.0000 4 105 1200 1575 1185 (Mail Submission Agent)\001
4 1 0 60 -1 16 6 0.0000 4 90 225 2925 1035 MTA\001
4 1 0 60 -1 16 6 0.0000 4 105 1005 2925 1185 (Mail Transfer Agent)\001
4 1 0 60 -1 16 6 0.0000 4 90 225 4275 1035 MTA\001
4 1 0 60 -1 16 6 0.0000 4 90 225 5175 1035 MTA\001
4 0 0 60 -1 16 6 0.0000 4 90 150 1215 1485 UA\001
4 0 0 60 -1 16 6 0.0000 4 105 600 1215 1635 (User Agent)\001
4 2 10 60 -1 16 6 0.0000 4 90 300 945 1125 SMTP\001
4 1 10 60 -1 16 6 0.0000 4 90 300 2250 720 SMTP\001
4 1 10 60 -1 16 6 0.0000 4 90 300 3600 720 SMTP\001
4 2 0 60 -1 16 6 0.0000 4 90 165 5400 1350 MS\001
4 2 0 60 -1 16 6 0.0000 4 105 795 5400 1500 (Message Store)\001
4 1 0 60 -1 16 6 0.0000 4 90 525 7695 720 client Web\001
4 2 0 60 -1 16 6 0.0000 4 90 150 7335 2520 UA\001
4 2 0 60 -1 16 6 0.0000 4 90 150 7470 1800 UA\001
4 1 0 60 -1 16 6 0.0000 4 90 615 6660 765 serveur Web\001
4 1 0 60 -1 16 6 0.0000 4 90 510 6660 1620 serveur de\001
4 1 0 60 -1 16 6 0.0000 4 90 840 6660 1770 boites aux lettres\001
4 1 10 60 -1 16 6 0.0000 4 90 270 7110 945 HTTP\001
4 1 10 60 -1 16 6 0.0000 4 90 270 7155 1980 IMAP\001
