#FIG 3.2  Produced by xfig version 3.2.5-alpha5
Portrait
Center
Metric
A4      
100.00
Single
-3
1200 2
2 2 0 1 0 7 51 -1 18 0.000 0 0 -1 0 0 5
	 450 675 1800 675 1800 1125 450 1125 450 675
2 2 0 1 0 7 51 -1 18 0.000 0 0 -1 0 0 5
	 450 1125 1800 1125 1800 1350 450 1350 450 1125
2 2 0 1 0 7 51 -1 18 0.000 0 0 -1 0 0 5
	 450 2700 1800 2700 1800 2925 450 2925 450 2700
2 2 0 1 0 7 51 -1 -1 0.000 0 0 -1 0 0 5
	 450 2925 1800 2925 1800 3150 450 3150 450 2925
2 2 0 1 0 7 51 -1 18 0.000 0 0 7 0 0 5
	 450 1350 1800 1350 1800 2700 450 2700 450 1350
4 1 0 50 -1 16 8 0.0000 6 120 1080 1125 945 longueur paquet (4)\001
4 1 0 50 -1 16 8 0.0000 6 120 1200 1125 1260 longueur bourrage (1)\001
4 1 0 50 -1 16 8 0.0000 6 135 990 1125 2835 bourrage al\351atoire\001
4 1 0 50 -1 16 8 0.0000 6 90 285 1125 3060 MAC\001
4 1 0 50 -1 16 8 0.0000 6 120 480 1125 1980 donn\351es\001
4 1 0 50 -1 16 8 0.0000 6 135 870 1125 2145 (\351ventuellement\001
4 1 0 50 -1 16 8 0.0000 6 135 690 1125 2310 comprim\351es)\001
