#FIG 3.2
Portrait
Center
Metric
A4      
100.00
Single
-2
1200 2
2 1 0 1 -1 -1 0 0 -1 0.000 0 0 -1 1 0 2
	1 1 1.00 45.00 90.00
	 900 405 1665 585
2 1 0 1 -1 -1 0 0 -1 0.000 0 0 -1 1 0 2
	1 1 1.00 45.00 90.00
	 1665 675 945 855
2 1 0 1 -1 -1 0 0 -1 0.000 0 0 -1 1 0 2
	1 1 1.00 45.00 90.00
	 945 1170 1710 1395
2 1 0 1 -1 -1 0 0 -1 0.000 0 0 -1 1 0 2
	1 1 1.00 45.00 90.00
	 1710 1440 900 1665
2 1 0 1 -1 -1 0 0 -1 0.000 0 0 -1 1 0 2
	1 1 1.00 45.00 90.00
	 900 2565 1665 2790
2 1 0 1 -1 -1 0 0 -1 0.000 0 0 -1 1 0 2
	1 1 1.00 45.00 90.00
	 1665 2925 900 3060
4 1 -1 0 0 17 10 0.0000 4 90 510 2250 180 serveur\001
4 1 -1 0 0 17 10 0.0000 4 120 360 450 180 client\001
4 1 -1 0 0 16 8 0.0000 4 105 600 450 405 connexion\001
4 1 -1 0 0 16 8 0.0000 4 120 690 450 945 cr\351er fen\352tre\001
4 1 -1 0 0 16 8 0.0000 4 105 840 450 1170 allouer couleurs\001
4 1 -1 0 0 16 8 0.0000 4 120 480 450 1710 cr\351er GC\001
4 1 -1 0 0 16 8 0.0000 4 120 945 450 1890 changer attr. fen.\001
4 1 -1 0 0 16 8 0.0000 4 120 840 450 2070 afficher fen\352tre\001
4 1 -1 0 0 16 8 0.0000 4 120 750 450 2250 charger fonte\001
4 1 -1 0 0 16 8 0.0000 4 90 450 450 2430 envoyer\001
4 1 -1 0 0 16 8 0.0000 4 105 465 450 2610 attendre\001
4 1 -1 0 0 16 8 0.0000 4 105 735 450 3150 afficher texte\001
4 1 -1 0 0 16 8 0.0000 4 120 615 450 3330 tracer ligne\001
4 1 -1 0 0 16 8 0.0000 4 90 450 450 3510 envoyer\001
4 1 -1 0 0 16 8 0.0000 4 105 465 450 3690 attendre\001
4 1 -1 0 0 16 8 0.0000 4 135 1005 2250 2880 map -> \351v\350nement\001
4 1 -1 0 0 16 8 0.0000 4 120 1020 2250 1440 reponse allocation\001
4 1 -1 0 0 16 8 0.0000 4 135 1110 2250 675 connexion accept\351e\001
