#FIG 3.2  Produced by xfig version 3.2.7b
Landscape
Center
Metric
A4
100.00
Single
-2
1200 2
2 1 0 1 0 7 50 -1 -1 0.000 0 0 -1 0 0 2
	 1575 495 990 765
2 1 0 1 0 7 50 -1 -1 0.000 0 0 -1 0 0 2
	 1575 495 1395 765
2 1 0 1 0 7 50 -1 -1 0.000 0 0 -1 0 0 2
	 1575 495 1755 765
2 1 0 1 0 7 50 -1 -1 0.000 0 0 -1 0 0 2
	 1575 495 2160 765
4 1 0 50 -1 16 8 0.0000 4 105 345 1350 900 abc.d\001
4 1 0 50 -1 16 8 0.0000 4 135 345 1800 900 axy.c\001
4 1 0 50 -1 16 8 0.0000 4 105 195 2250 900 b.c\001
4 1 0 50 -1 16 8 0.0000 4 75 195 900 900 a.c\001
4 1 0 50 -1 16 8 0.0000 4 135 660 1575 450 /home/pda\001
