#FIG 3.2  Produced by xfig version 3.2.5c
Landscape
Center
Metric
A4      
100.00
Single
-2
1200 2
6 450 900 5850 1170
2 1 0 1 0 7 50 -1 -1 0.000 0 0 -1 0 0 4
	 450 900 450 1170 5850 1170 5850 900
2 1 0 1 0 7 50 -1 -1 0.000 0 0 -1 0 0 2
	 1350 990 1350 1170
2 1 0 1 0 7 50 -1 -1 0.000 0 0 -1 0 0 2
	 2250 990 2250 1170
2 1 0 1 0 7 50 -1 -1 0.000 0 0 -1 0 0 2
	 3150 990 3150 1170
2 1 0 1 0 7 50 -1 -1 0.000 0 0 -1 0 0 2
	 4050 990 4050 1170
2 1 0 1 0 7 50 -1 -1 0.000 0 0 -1 0 0 2
	 4950 990 4950 1170
-6
6 450 1755 1890 1845
4 1 0 50 -1 16 7 0.0000 4 105 150 540 1845 b0\001
4 1 0 50 -1 16 7 0.0000 4 105 150 720 1845 b1\001
4 1 0 50 -1 16 7 0.0000 4 105 150 900 1845 b2\001
4 1 0 50 -1 16 7 0.0000 4 105 150 1080 1845 b3\001
4 1 0 50 -1 16 7 0.0000 4 105 150 1260 1845 b4\001
4 1 0 50 -1 16 7 0.0000 4 105 150 1440 1845 b5\001
4 1 0 50 -1 16 7 0.0000 4 105 150 1620 1845 b6\001
4 1 0 50 -1 16 7 0.0000 4 105 150 1800 1845 b7\001
-6
2 1 0 1 0 7 50 -1 -1 0.000 0 0 -1 0 0 7
	 495 720 585 630 1710 630 1800 585 1890 630 3015 630
	 3105 720
2 1 0 1 0 7 50 -1 -1 0.000 0 0 -1 0 0 7
	 3195 720 3285 630 4410 630 4500 585 4590 630 5715 630
	 5805 720
2 1 0 1 0 7 50 -1 -1 0.000 0 0 -1 0 0 2
	 810 1800 810 1890
2 1 0 1 0 7 50 -1 -1 0.000 0 0 -1 0 0 2
	 1350 1800 1350 1890
2 1 0 1 0 7 50 -1 -1 0.000 0 0 -1 0 0 2
	 1530 1800 1530 1890
2 1 0 1 0 7 50 -1 -1 0.000 0 0 -1 0 0 2
	 1710 1800 1710 1890
2 1 0 1 0 7 50 -1 -1 0.000 0 0 -1 0 0 2
	 1170 1800 1170 1890
2 1 2 1 0 7 50 -1 -1 3.000 0 0 -1 0 0 2
	 450 1170 450 1710
2 1 2 1 0 7 50 -1 -1 3.000 0 0 -1 0 0 2
	 1350 1170 1890 1710
2 1 0 1 0 7 50 -1 -1 4.000 0 0 -1 1 0 3
	1 1 1.00 60.00 120.00
	 810 2250 720 2250 720 1935
2 1 0 1 0 7 50 -1 -1 4.000 0 0 -1 1 0 3
	1 1 1.00 60.00 120.00
	 810 2430 540 2430 540 1935
2 1 0 1 0 7 50 -1 -1 0.000 0 0 -1 0 0 2
	 990 1800 990 1890
2 1 0 1 0 7 50 -1 -1 0.000 0 0 -1 0 0 2
	 630 1800 630 1890
2 1 0 1 0 7 50 -1 -1 0.000 0 0 -1 0 0 4
	 450 1710 450 1890 1890 1890 1890 1710
4 1 0 50 -1 16 10 0.0000 4 165 1515 1800 495 num\351ro d'entit\351 (OUI)\001
4 1 0 50 -1 16 10 0.0000 4 135 1275 4500 495 num\351ro d'interface\001
4 0 0 50 -1 16 9 0.0000 4 150 1620 855 2475 0 : unicast, 1 : multicast\001
4 0 0 50 -1 16 9 0.0000 4 165 1680 855 2295 0 : OUI, 1 : num\351ro local\001
4 1 0 50 -1 17 8 0.0000 4 105 375 1800 810 24 bits\001
4 1 0 50 -1 17 8 0.0000 4 105 375 4500 810 24 bits\001
