#FIG 3.2  Produced by xfig version 3.2.5b
Landscape
Center
Metric
A4      
100.00
Single
-2
1200 2
0 32 #808080
0 33 #c0c0c0
0 34 #e0e0e0
0 35 #9e9e9e
0 36 #868286
0 37 #717571
0 38 #aaaaaa
0 39 #aeaaae
0 40 #555555
0 41 #8e8e8e
0 42 #444444
0 43 #c7c3c7
0 44 #e7e3e7
0 45 #c7c7c7
0 46 #757575
0 47 #f3f3f3
0 48 #525d6b
0 49 #9c9a9c
0 50 #b5b6c6
0 51 #848284
0 52 #c6c3c6
0 53 #dedfde
0 54 #424542
0 55 #c6c7c6
0 56 #414541
0 57 #d7d3d7
0 58 #303030
0 59 #515551
0 60 #f7f3f7
0 61 #8e8f8e
0 62 #404040
6 1800 450 2250 630
2 2 0 0 -1 11 50 -1 24 0.000 0 0 -1 0 0 5
	 1800 450 2250 450 2250 630 1800 630 1800 450
4 1 0 49 -1 16 9 0.0000 4 105 105 2025 585 A\001
-6
6 450 900 900 1080
2 2 0 0 -1 11 50 -1 24 0.000 0 0 -1 0 0 5
	 450 900 900 900 900 1080 450 1080 450 900
4 1 0 49 -1 16 9 0.0000 4 105 105 675 1035 B\001
-6
6 1350 1350 1800 1530
2 2 0 0 -1 11 50 -1 24 0.000 0 0 -1 0 0 5
	 1350 1350 1800 1350 1800 1530 1350 1530 1350 1350
4 1 0 49 -1 16 9 0.0000 4 105 105 1575 1485 C\001
-6
6 2520 900 2970 1080
2 2 0 0 -1 11 50 -1 24 0.000 0 0 -1 0 0 5
	 2520 900 2970 900 2970 1080 2520 1080 2520 900
4 1 0 49 -1 16 9 0.0000 4 105 105 2745 1035 E\001
-6
6 2250 1620 2700 1800
2 2 0 0 -1 11 50 -1 24 0.000 0 0 -1 0 0 5
	 2250 1620 2700 1620 2700 1800 2250 1800 2250 1620
4 1 0 49 -1 16 9 0.0000 4 105 105 2475 1755 D\001
-6
2 1 0 1 0 7 51 -1 -1 0.000 0 0 -1 0 0 2
	 675 990 2025 540
2 1 0 1 0 7 51 -1 -1 0.000 0 0 -1 0 0 2
	 675 990 1575 1440
2 1 0 1 0 7 51 -1 -1 0.000 0 0 -1 0 0 2
	 2025 540 2700 990
2 1 0 1 0 7 51 -1 -1 0.000 0 0 -1 0 0 2
	 1575 1440 2475 1710
2 1 0 1 0 7 51 -1 -1 0.000 0 0 -1 0 0 2
	 2475 1710 2745 1035
2 1 0 1 0 7 51 -1 -1 0.000 0 0 -1 0 0 2
	 1575 1440 2700 990
2 1 0 3 13 7 52 -1 -1 0.000 0 1 7 0 0 2
	 675 945 1575 1395
2 1 0 3 13 7 52 -1 -1 0.000 0 1 7 0 0 2
	 675 945 2025 495
2 1 0 3 13 7 52 -1 -1 0.000 0 1 7 0 0 2
	 1575 1395 2700 945
2 1 0 3 13 7 52 -1 -1 0.000 0 1 7 0 0 2
	 1575 1395 2430 1665
2 1 0 3 20 7 48 -1 -1 0.000 0 1 7 0 0 2
	 2520 1260 2700 1440
2 1 0 3 20 7 48 -1 -1 0.000 0 1 7 0 0 2
	 2520 1440 2700 1260
2 1 0 3 20 7 48 -1 -1 0.000 0 1 7 0 0 2
	 2250 855 2430 675
2 1 0 3 20 7 48 -1 -1 0.000 0 1 7 0 0 2
	 2250 675 2430 855
